{
  "connection": "default",
  "collectionName": "project_descriptions",
  "info": {
    "name": "Project Description"
  },
  "options": {
    "increments": true,
    "timestamps": true
  },
  "attributes": {
    "introduction": {
      "type": "richtext"
    },
    "outcomes": {
      "collection": "outcome"
    },
    "title": {
      "type": "string"
    },
    "background": {
      "type": "richtext"
    },
    "objectives": {
      "type": "richtext"
    },
    "achievements": {
      "type": "richtext"
    },
    "next": {
      "type": "richtext"
    }
  }
}
