{
  "connection": "default",
  "collectionName": "categories",
  "info": {
    "name": "Category"
  },
  "options": {
    "increments": true,
    "timestamps": true
  },
  "attributes": {
    "name": {
      "type": "string"
    },
    "description": {
      "type": "richtext"
    },
    "blogs": {
      "via": "category",
      "collection": "blog"
    }
  }
}
